@startuml

package Ressource {
	abstract Class Ressources {
	    R_code: Integer {key}
		titre : String 
		date_apparition : Date
		editeur : String
		genre : String
		code_classification : String
	}

	Class Exemplaire{
	    numero : Integer 
		code : Integer
		etat : {neuf, bon, abime, perdu}
		dispo : Bool
		dispo()
	}
	
	note bottom : (numero,code) clé primaire


	Class Livre{
	    code : Integer {key}
		ISBN : String {not null}
		langue : String {not null}
		résumé : String
	}


	Class Film{
	    code : Integer {key}
		langue : String
		durée : Interval {not null}
		synopsis : String
	}

	Class EnregistrementMusical{
	    code : Integer {key}
		durée : Interval {not null}
	}


	abstract Class Contributeur{
		id : Integer {key}
		nom : String
		prenom : String
		date_naissance : Date
		nationalité : String
	}

	note left : Un compositeur et un interprète peuvent contribuer à un enregistrement musical\nUn auteur peut contribuerr à un livre\nUn acteur et un réalisateur peuvent contribuer à un film

	Ressources <|-- Livre
	Ressources <|-- EnregistrementMusical
	Ressources <|-- Film
	Ressources *-- "1..*"Exemplaire

	Contributeur <|-- Compositeur
	Contributeur <|-- Interprete
	Contributeur <|-- Auteur
	Contributeur <|-- Acteur
	Contributeur <|-- Realisateur 

	Contributeur"1..*" - "1..*" Ressources : contribue >

	note top of Exemplaire : La méthode dispo retourne un booléen selon si \n - la ressource a au moins un exemplaire disponible \n - la ressource a au moins un exemplaire en état neuf ou bon

}

package Utilisateur #DDDDDD{
	abstract Class CompteUtilisateur {
	    login : String {key}
	    mdp : String {unique not null}
	    nom : String 
	    prenom : String
	    adresse : String
	    adresse_email : String 
	}
	
	note left: un adhérent peut être membre du personnel

	Class Personnel {
	}
	
	Class Adherents{
	    numero_tel : String
	    carte : {active, inactive}
	    nb_prets : Integer < nbMax
	    suspendu : Bool
	    blackliste : Bool
	}

	note top : - une carte est inactive si l'adhésion n'est \nplus effective dû au non-renouvellement de l'adhésion\n- nbMax est défini par le personnel

	Class Sanction{
		id : Integer{key}
		suspension()
	}

	abstract Class Cause{
		id : integer {key}
		date_debut : date
	}

	Class Retard{
		nb_jours : Integer
	}

	Class Degradation{
		montant : Decimal
		remboursement : Bool
	}

	Cause <|-- Retard
	Cause <|-- Degradation

	Sanction "1" - "1"  Cause 
	Adherents "1"- "0..*" Sanction : est sanctionné >

	CompteUtilisateur <|-- Personnel
	CompteUtilisateur <|-- Adherents
	

}

Class Pret{
    date_emprunt : Date {key}
    duree_jours : Integer
    num_exemplaire : Integer
}

Adherents "0..*" --- "0..*" Ressources : Emprunte >
(Adherents, Ressources) .. Pret

note top of Pret : Pour emprunter une ressource : \n - un adhérent ne doit pas être blacklisté \n - la ressource doit être disponible avec méthode dispo\n - la carte de l'adhérent doit être active\n - l'adhérent ne doit pas avoir de suspension de prêt

@enduml

